Tarea 01
…
Sys.setlocale("LC_ALL", "es_ES.UTF-8")

## [1] "es_ES.UTF-8/es_ES.UTF-8/es_ES.UTF-8/C/es_ES.UTF-8/en_US.UTF-8"

options(scipen=999)

Mi cuerpo es mo

Las reformas al cdigo penal de Puebla para tipificar la violencia digital -mejor conocida como Ley Olimpia-, fueron aprobadas en 2018 e impulsadas por la propia Olimpia Coral. En este momento, la Ley Olimpia ya fue aprobada en 22 estados del pas y los datos que obtuvimos a travs de transparencia indican que hay 488 carpetas de investigacin abiertas

Mapa en ggplot

## # A tibble: 32 x 2
##    estado               carpetas
##    <chr>                   <dbl>
##  1 BAJA CALIFORNIA            62
##  2 CAMPECHE                   10
##  3 CHIAPAS                    12
##  4 CIUDAD DE MXICO           38
##  5 GUANAJUATO                 99
##  6 NUEVO LEON                 40
##  7 OAXACA                      5
##  8 PUEBLA                     19
##  9 QUERETARO DE ARTEAGA       84
## 10 SONORA                     25
## #  with 22 more rows
…
